<?xml version="1.0" encoding="utf-8"?>
<!-- Generator: Adobe Illustrator 23.0.1, SVG Export Plug-In . SVG Version: 6.00 Build 0)  -->
<svg version="1.1" id="Layer_1" xmlns="http://www.w3.org/2000/svg" xmlns:xlink="http://www.w3.org/1999/xlink" x="0px" y="0px"
	 viewBox="0 0 123.82 35.77" style="enable-background:new 0 0 123.82 35.77;" xml:space="preserve">
<style type="text/css">
	.st0{fill:#231F20;}
	.st1{fill:#FCDD30;}
	.st2{fill:#FBDA2E;}
	.st3{fill:none;stroke:#FCDA2F;stroke-width:3;stroke-miterlimit:10;}
	.st4{fill:#FCDA2F;}
	.st5{fill:#0AAD51;}
	.st6{display:none;}
	.st7{display:inline;fill:#FFFFFF;}
</style>
<g>
	<circle class="st5" cx="106.61" cy="17.21" r="17.21"/>
	<circle class="st5" cx="61.91" cy="18.56" r="17.21"/>
	<circle class="st5" cx="17.21" cy="18.56" r="17.21"/>
</g>
</svg>
